…
Set µ = 0

``` r
sim_results = 
  rerun(5000, t_test(mu = 0)) %>% 
  bind_rows()
sim_results %>% 
  select(estimate, p.value)
```

    ## # A tibble: 5,000 x 2
    ##    estimate p.value
    ##       <dbl>   <dbl>
    ##  1  -0.0918  0.913 
    ##  2   1.39    0.0682
    ##  3   0.936   0.377 
    ##  4   1.52    0.127 
    ##  5  -0.174   0.808 
    ##  6   1.33    0.207 
    ##  7  -0.804   0.493 
    ##  8  -1.23    0.204 
    ##  9  -0.835   0.373 
    ## 10   2.04    0.0178
    ## # ... with 4,990 more rows
Repeat for means 1 to 6.

``` r
rep_sim_results = 
  tibble(mean = c(0, 1, 2, 3, 4, 5, 6)) %>% 
  mutate(
    output_lists = map(.x = mean, ~rerun(5000, t_test(mu = .x))),
    estimate_dfs = map(output_lists, bind_rows)) %>% 
  select(-output_lists) %>% 
  unnest(estimate_dfs)
rep_sim_results %>% 
  select(mean, estimate, p.value)
```

    ## # A tibble: 35,000 x 3
    ##     mean estimate p.value
    ##    <dbl>    <dbl>   <dbl>
    ##  1     0  -0.661   0.445 
    ##  2     0  -0.234   0.792 
    ##  3     0   0.381   0.654 
    ##  4     0  -0.356   0.735 
    ##  5     0  -0.732   0.455 
    ##  6     0  -2.45    0.0363
    ##  7     0  -0.0463  0.954 
    ##  8     0   0.0832  0.923 
    ##  9     0  -0.150   0.848 
    ## 10     0  -1.25    0.220 
    ## # ... with 34,990 more rows
…
